-------------------------------------------------------------------------------
Test set: com.tsg.contactlistmvc.dao.ContactListDaoTest
-------------------------------------------------------------------------------
Tests run: 4, Failures: 0, Errors: 0, Skipped: 0, Time elapsed: 0.841 sec
